[
    {
        "location": "ut_test/multi/three",
        "name": "testpackage",
        "version": "3.0.0"
    },
    {
        "location": "ut_test/multi/one",
        "name": "testpackage",
        "version": "1.0.0"
    }
]